<?xml version="1.0" encoding="UTF-8" standalone="no"?>
<svg
   xmlns:dc="http://purl.org/dc/elements/1.1/"
   xmlns:cc="http://creativecommons.org/ns#"
   xmlns:rdf="http://www.w3.org/1999/02/22-rdf-syntax-ns#"
   xmlns:svg="http://www.w3.org/2000/svg"
   xmlns="http://www.w3.org/2000/svg"
   xmlns:xlink="http://www.w3.org/1999/xlink"
   xmlns:sodipodi="http://sodipodi.sourceforge.net/DTD/sodipodi-0.dtd"
   xmlns:inkscape="http://www.inkscape.org/namespaces/inkscape"
   width="450pt"
   height="300pt"
   viewBox="0 0 450 300"
   version="1.1"
   id="svg296"
   sodipodi:docname="tc_example.svg"
   inkscape:version="0.92.3 (2405546, 2018-03-11)">
  <sodipodi:namedview
     pagecolor="#ffffff"
     bordercolor="#666666"
     borderopacity="1"
     objecttolerance="10"
     gridtolerance="10"
     guidetolerance="10"
     inkscape:pageopacity="0"
     inkscape:pageshadow="2"
     inkscape:window-width="1366"
     inkscape:window-height="704"
     id="namedview298"
     showgrid="false"
     showguides="true"
     inkscape:guide-bbox="true"
     inkscape:zoom="1.1566667"
     inkscape:cx="258.49421"
     inkscape:cy="183.89918"
     inkscape:window-x="0"
     inkscape:window-y="27"
     inkscape:window-maximized="1"
     inkscape:current-layer="svg296">
    <sodipodi:guide
       position="408.98078,197.84216"
       orientation="1,0"
       id="guide1249"
       inkscape:locked="false" />
    <sodipodi:guide
       position="76.34002,190.27693"
       orientation="1,0"
       id="guide2750"
       inkscape:locked="false" />
  </sodipodi:namedview>
  <metadata
     id="metadata300">
    <rdf:RDF>
      <cc:Work
         rdf:about="">
        <dc:format>image/svg+xml</dc:format>
        <dc:type
           rdf:resource="http://purl.org/dc/dcmitype/StillImage" />
        <dc:title />
      </cc:Work>
    </rdf:RDF>
  </metadata>
  <defs
     id="defs97">
    <g
       id="g95">
      <symbol
         overflow="visible"
         id="glyph0-0">
        <path
           style="stroke:none;"
           d=""
           id="path2" />
      </symbol>
      <symbol
         overflow="visible"
         id="glyph0-1">
        <path
           style="stroke:none;"
           d="M 6.125 -6.015625 C 6.125 -7.453125 5.015625 -8.515625 3.40625 -8.515625 C 1.671875 -8.515625 0.65625 -7.625 0.59375 -5.5625 L 1.65625 -5.5625 C 1.734375 -6.984375 2.328125 -7.578125 3.375 -7.578125 C 4.328125 -7.578125 5.046875 -6.90625 5.046875 -5.984375 C 5.046875 -5.3125 4.65625 -4.734375 3.90625 -4.3125 L 2.796875 -3.6875 C 1.015625 -2.671875 0.5 -1.875 0.40625 0 L 6.078125 0 L 6.078125 -1.046875 L 1.59375 -1.046875 C 1.703125 -1.734375 2.09375 -2.1875 3.125 -2.796875 L 4.328125 -3.4375 C 5.515625 -4.078125 6.125 -4.96875 6.125 -6.015625 Z M 6.125 -6.015625 "
           id="path5" />
      </symbol>
      <symbol
         overflow="visible"
         id="glyph0-2">
        <path
           style="stroke:none;"
           d="M 6.234375 -2.046875 L 6.234375 -2.984375 L 4.984375 -2.984375 L 4.984375 -8.515625 L 4.203125 -8.515625 L 0.34375 -3.15625 L 0.34375 -2.046875 L 3.921875 -2.046875 L 3.921875 0 L 4.984375 0 L 4.984375 -2.046875 Z M 3.921875 -2.984375 L 1.265625 -2.984375 L 3.921875 -6.703125 Z M 3.921875 -2.984375 "
           id="path8" />
      </symbol>
      <symbol
         overflow="visible"
         id="glyph0-3">
        <path
           style="stroke:none;"
           d="M 6.15625 -2.640625 C 6.15625 -4.21875 5.078125 -5.296875 3.546875 -5.296875 C 2.71875 -5.296875 2.046875 -4.96875 1.59375 -4.34375 C 1.609375 -6.421875 2.28125 -7.578125 3.484375 -7.578125 C 4.234375 -7.578125 4.75 -7.109375 4.921875 -6.28125 L 5.96875 -6.28125 C 5.765625 -7.6875 4.859375 -8.515625 3.5625 -8.515625 C 1.578125 -8.515625 0.515625 -6.84375 0.515625 -3.875 C 0.515625 -1.21875 1.421875 0.1875 3.375 0.1875 C 4.984375 0.1875 6.15625 -0.96875 6.15625 -2.640625 Z M 5.078125 -2.5625 C 5.078125 -1.484375 4.359375 -0.75 3.390625 -0.75 C 2.40625 -0.75 1.65625 -1.53125 1.65625 -2.609375 C 1.65625 -3.671875 2.375 -4.359375 3.421875 -4.359375 C 4.4375 -4.359375 5.078125 -3.703125 5.078125 -2.5625 Z M 5.078125 -2.5625 "
           id="path11" />
      </symbol>
      <symbol
         overflow="visible"
         id="glyph0-4">
        <path
           style="stroke:none;"
           d="M 6.15625 -2.40625 C 6.15625 -3.34375 5.671875 -4.015625 4.6875 -4.46875 C 5.5625 -5 5.859375 -5.4375 5.859375 -6.234375 C 5.859375 -7.578125 4.8125 -8.515625 3.296875 -8.515625 C 1.796875 -8.515625 0.75 -7.578125 0.75 -6.234375 C 0.75 -5.453125 1.03125 -5.015625 1.890625 -4.46875 C 0.921875 -4.015625 0.4375 -3.34375 0.4375 -2.40625 C 0.4375 -0.859375 1.625 0.1875 3.296875 0.1875 C 4.984375 0.1875 6.15625 -0.859375 6.15625 -2.40625 Z M 4.78125 -6.21875 C 4.78125 -5.421875 4.1875 -4.890625 3.296875 -4.890625 C 2.40625 -4.890625 1.828125 -5.421875 1.828125 -6.234375 C 1.828125 -7.046875 2.40625 -7.578125 3.296875 -7.578125 C 4.203125 -7.578125 4.78125 -7.046875 4.78125 -6.21875 Z M 5.078125 -2.390625 C 5.078125 -1.375 4.359375 -0.75 3.28125 -0.75 C 2.25 -0.75 1.53125 -1.390625 1.53125 -2.390625 C 1.53125 -3.390625 2.25 -4.015625 3.296875 -4.015625 C 4.359375 -4.015625 5.078125 -3.390625 5.078125 -2.390625 Z M 5.078125 -2.390625 "
           id="path14" />
      </symbol>
      <symbol
         overflow="visible"
         id="glyph0-5">
        <path
           style="stroke:none;"
           d="M 4.15625 0 L 4.15625 -8.515625 L 3.46875 -8.515625 C 3.09375 -7.203125 2.859375 -7.015625 1.21875 -6.8125 L 1.21875 -6.0625 L 3.109375 -6.0625 L 3.109375 0 Z M 4.15625 0 "
           id="path17" />
      </symbol>
      <symbol
         overflow="visible"
         id="glyph0-6">
        <path
           style="stroke:none;"
           d="M 6.078125 -4.09375 C 6.078125 -7.046875 5.140625 -8.515625 3.296875 -8.515625 C 1.46875 -8.515625 0.515625 -7.015625 0.515625 -4.15625 C 0.515625 -1.296875 1.46875 0.1875 3.296875 0.1875 C 5.09375 0.1875 6.078125 -1.296875 6.078125 -4.09375 Z M 5 -4.1875 C 5 -1.78125 4.453125 -0.703125 3.28125 -0.703125 C 2.15625 -0.703125 1.59375 -1.828125 1.59375 -4.15625 C 1.59375 -6.484375 2.15625 -7.578125 3.296875 -7.578125 C 4.4375 -7.578125 5 -6.46875 5 -4.1875 Z M 5 -4.1875 "
           id="path20" />
      </symbol>
      <symbol
         overflow="visible"
         id="glyph0-7">
        <path
           style="stroke:none;"
           d="M 7.109375 -7.765625 L 7.109375 -8.75 L 0.25 -8.75 L 0.25 -7.765625 L 3.125 -7.765625 L 3.125 0 L 4.25 0 L 4.25 -7.765625 Z M 7.109375 -7.765625 "
           id="path23" />
      </symbol>
      <symbol
         overflow="visible"
         id="glyph0-8">
        <path
           style="stroke:none;"
           d="M 6.15625 -2.859375 C 6.15625 -3.765625 6.078125 -4.34375 5.90625 -4.8125 C 5.5 -5.84375 4.53125 -6.46875 3.359375 -6.46875 C 1.609375 -6.46875 0.484375 -5.171875 0.484375 -3.109375 C 0.484375 -1.046875 1.578125 0.1875 3.34375 0.1875 C 4.78125 0.1875 5.765625 -0.640625 6.03125 -1.90625 L 5.015625 -1.90625 C 4.734375 -1.078125 4.171875 -0.75 3.375 -0.75 C 2.328125 -0.75 1.546875 -1.421875 1.53125 -2.859375 Z M 5.09375 -3.75 C 5.09375 -3.75 5.09375 -3.703125 5.078125 -3.671875 L 1.546875 -3.671875 C 1.625 -4.78125 2.34375 -5.546875 3.34375 -5.546875 C 4.328125 -5.546875 5.09375 -4.734375 5.09375 -3.75 Z M 5.09375 -3.75 "
           id="path26" />
      </symbol>
      <symbol
         overflow="visible"
         id="glyph0-9">
        <path
           style="stroke:none;"
           d="M 9.125 0 L 9.125 -4.71875 C 9.125 -5.84375 8.5 -6.46875 7.3125 -6.46875 C 6.484375 -6.46875 5.96875 -6.21875 5.390625 -5.515625 C 5.015625 -6.1875 4.515625 -6.46875 3.703125 -6.46875 C 2.859375 -6.46875 2.296875 -6.15625 1.765625 -5.40625 L 1.765625 -6.28125 L 0.859375 -6.28125 L 0.859375 0 L 1.84375 0 L 1.84375 -3.953125 C 1.84375 -4.859375 2.515625 -5.59375 3.328125 -5.59375 C 4.0625 -5.59375 4.484375 -5.140625 4.484375 -4.328125 L 4.484375 0 L 5.484375 0 L 5.484375 -3.953125 C 5.484375 -4.859375 6.15625 -5.59375 6.96875 -5.59375 C 7.703125 -5.59375 8.125 -5.125 8.125 -4.328125 L 8.125 0 Z M 9.125 0 "
           id="path29" />
      </symbol>
      <symbol
         overflow="visible"
         id="glyph0-10">
        <path
           style="stroke:none;"
           d="M 6.28125 -3.078125 C 6.28125 -5.203125 5.25 -6.46875 3.578125 -6.46875 C 2.71875 -6.46875 2.046875 -6.078125 1.578125 -5.34375 L 1.578125 -6.28125 L 0.65625 -6.28125 L 0.65625 2.609375 L 1.65625 2.609375 L 1.65625 -0.75 C 2.1875 -0.109375 2.765625 0.1875 3.59375 0.1875 C 5.203125 0.1875 6.28125 -1.078125 6.28125 -3.078125 Z M 5.234375 -3.109375 C 5.234375 -1.6875 4.5 -0.75 3.40625 -0.75 C 2.359375 -0.75 1.65625 -1.625 1.65625 -3.09375 C 1.65625 -4.578125 2.359375 -5.53125 3.40625 -5.53125 C 4.515625 -5.53125 5.234375 -4.609375 5.234375 -3.109375 Z M 5.234375 -3.109375 "
           id="path32" />
      </symbol>
      <symbol
         overflow="visible"
         id="glyph0-11">
        <path
           style="stroke:none;"
           d="M 5.515625 -1.765625 C 5.515625 -2.703125 4.984375 -3.171875 3.734375 -3.46875 L 2.765625 -3.703125 C 1.953125 -3.890625 1.609375 -4.15625 1.609375 -4.59375 C 1.609375 -5.171875 2.125 -5.546875 2.9375 -5.546875 C 3.75 -5.546875 4.171875 -5.203125 4.203125 -4.53125 L 5.25 -4.53125 C 5.25 -5.765625 4.421875 -6.46875 2.96875 -6.46875 C 1.515625 -6.46875 0.5625 -5.71875 0.5625 -4.546875 C 0.5625 -3.5625 1.0625 -3.09375 2.5625 -2.734375 L 3.484375 -2.515625 C 4.1875 -2.34375 4.46875 -2.140625 4.46875 -1.6875 C 4.46875 -1.09375 3.875 -0.75 3 -0.75 C 2.09375 -0.75 1.59375 -0.953125 1.46875 -1.921875 L 0.40625 -1.921875 C 0.453125 -0.46875 1.265625 0.1875 2.921875 0.1875 C 4.5 0.1875 5.515625 -0.546875 5.515625 -1.765625 Z M 5.515625 -1.765625 "
           id="path35" />
      </symbol>
      <symbol
         overflow="visible"
         id="glyph1-0">
        <path
           style="stroke:none;"
           d=""
           id="path38" />
      </symbol>
      <symbol
         overflow="visible"
         id="glyph1-1">
        <path
           style="stroke:none;"
           d="M 0 -4.15625 L -8.515625 -4.15625 L -8.515625 -3.46875 C -7.203125 -3.09375 -7.015625 -2.859375 -6.8125 -1.21875 L -6.0625 -1.21875 L -6.0625 -3.109375 L 0 -3.109375 Z M 0 -4.15625 "
           id="path41" />
      </symbol>
      <symbol
         overflow="visible"
         id="glyph1-2">
        <path
           style="stroke:none;"
           d="M -4.09375 -6.078125 C -7.046875 -6.078125 -8.515625 -5.140625 -8.515625 -3.296875 C -8.515625 -1.46875 -7.015625 -0.515625 -4.15625 -0.515625 C -1.296875 -0.515625 0.1875 -1.46875 0.1875 -3.296875 C 0.1875 -5.09375 -1.296875 -6.078125 -4.09375 -6.078125 Z M -4.1875 -5 C -1.78125 -5 -0.703125 -4.453125 -0.703125 -3.28125 C -0.703125 -2.15625 -1.828125 -1.59375 -4.15625 -1.59375 C -6.484375 -1.59375 -7.578125 -2.15625 -7.578125 -3.296875 C -7.578125 -4.4375 -6.46875 -5 -4.1875 -5 Z M -4.1875 -5 "
           id="path44" />
      </symbol>
      <symbol
         overflow="visible"
         id="glyph1-3">
        <path
           style="stroke:none;"
           d="M -6.015625 -6.125 C -7.453125 -6.125 -8.515625 -5.015625 -8.515625 -3.40625 C -8.515625 -1.671875 -7.625 -0.65625 -5.5625 -0.59375 L -5.5625 -1.65625 C -6.984375 -1.734375 -7.578125 -2.328125 -7.578125 -3.375 C -7.578125 -4.328125 -6.90625 -5.046875 -5.984375 -5.046875 C -5.3125 -5.046875 -4.734375 -4.65625 -4.3125 -3.90625 L -3.6875 -2.796875 C -2.671875 -1.015625 -1.875 -0.5 0 -0.40625 L 0 -6.078125 L -1.046875 -6.078125 L -1.046875 -1.59375 C -1.734375 -1.703125 -2.1875 -2.09375 -2.796875 -3.125 L -3.4375 -4.328125 C -4.078125 -5.515625 -4.96875 -6.125 -6.015625 -6.125 Z M -6.015625 -6.125 "
           id="path47" />
      </symbol>
      <symbol
         overflow="visible"
         id="glyph1-4">
        <path
           style="stroke:none;"
           d="M -2.46875 -6.078125 C -3.5 -6.078125 -4.109375 -5.65625 -4.453125 -4.625 C -4.765625 -5.421875 -5.3125 -5.8125 -6.171875 -5.8125 C -7.625 -5.8125 -8.515625 -4.84375 -8.515625 -3.234375 C -8.515625 -1.515625 -7.578125 -0.59375 -5.765625 -0.5625 L -5.765625 -1.625 C -7.015625 -1.640625 -7.578125 -2.15625 -7.578125 -3.234375 C -7.578125 -4.171875 -7.03125 -4.734375 -6.125 -4.734375 C -5.21875 -4.734375 -4.84375 -4.34375 -4.84375 -2.65625 L -3.953125 -2.65625 L -3.953125 -3.234375 C -3.953125 -4.390625 -3.40625 -4.984375 -2.453125 -4.984375 C -1.390625 -4.984375 -0.75 -4.328125 -0.75 -3.234375 C -0.75 -2.078125 -1.328125 -1.515625 -2.5625 -1.4375 L -2.5625 -0.390625 C -0.671875 -0.515625 0.1875 -1.453125 0.1875 -3.1875 C 0.1875 -4.9375 -0.859375 -6.078125 -2.46875 -6.078125 Z M -2.46875 -6.078125 "
           id="path50" />
      </symbol>
      <symbol
         overflow="visible"
         id="glyph1-5">
        <path
           style="stroke:none;"
           d="M -2.046875 -6.234375 L -2.984375 -6.234375 L -2.984375 -4.984375 L -8.515625 -4.984375 L -8.515625 -4.203125 L -3.15625 -0.34375 L -2.046875 -0.34375 L -2.046875 -3.921875 L 0 -3.921875 L 0 -4.984375 L -2.046875 -4.984375 Z M -2.984375 -3.921875 L -2.984375 -1.265625 L -6.703125 -3.921875 Z M -2.984375 -3.921875 "
           id="path53" />
      </symbol>
      <symbol
         overflow="visible"
         id="glyph1-6">
        <path
           style="stroke:none;"
           d="M -2.8125 -6.15625 C -4.5 -6.15625 -5.609375 -5.046875 -5.609375 -3.40625 C -5.609375 -2.8125 -5.453125 -2.328125 -5.09375 -1.84375 L -7.28125 -2.171875 L -7.28125 -5.71875 L -8.328125 -5.71875 L -8.328125 -1.3125 L -3.875 -0.6875 L -3.875 -1.65625 C -4.46875 -2.140625 -4.671875 -2.5625 -4.671875 -3.21875 C -4.671875 -4.359375 -3.9375 -5.078125 -2.671875 -5.078125 C -1.453125 -5.078125 -0.75 -4.375 -0.75 -3.21875 C -0.75 -2.296875 -1.21875 -1.734375 -2.1875 -1.46875 L -2.1875 -0.421875 C -0.484375 -0.765625 0.1875 -1.734375 0.1875 -3.234375 C 0.1875 -4.953125 -1.015625 -6.15625 -2.8125 -6.15625 Z M -2.8125 -6.15625 "
           id="path56" />
      </symbol>
      <symbol
         overflow="visible"
         id="glyph1-7">
        <path
           style="stroke:none;"
           d="M -8.75 -7.734375 L -8.75 -6.546875 L -1.34375 -4.125 L -8.75 -1.5625 L -8.75 -0.359375 L 0 -3.5 L 0 -4.703125 Z M -8.75 -7.734375 "
           id="path59" />
      </symbol>
      <symbol
         overflow="visible"
         id="glyph1-8">
        <path
           style="stroke:none;"
           d="M -0.03125 -6.421875 L -0.78125 -6.421875 C -0.75 -6.3125 -0.75 -6.265625 -0.75 -6.203125 C -0.75 -5.859375 -0.9375 -5.65625 -1.25 -5.65625 L -4.75 -5.65625 C -5.875 -5.65625 -6.46875 -4.84375 -6.46875 -3.296875 C -6.46875 -1.78125 -5.875 -0.84375 -4.421875 -0.78125 L -4.421875 -1.78125 C -5.203125 -1.875 -5.546875 -2.328125 -5.546875 -3.265625 C -5.546875 -4.15625 -5.203125 -4.671875 -4.609375 -4.671875 L -4.34375 -4.671875 C -3.921875 -4.671875 -3.75 -4.421875 -3.640625 -3.625 C -3.46875 -2.203125 -3.421875 -1.984375 -3.265625 -1.609375 C -2.96875 -0.875 -2.40625 -0.5 -1.625 -0.5 C -0.484375 -0.5 0.1875 -1.296875 0.1875 -2.5625 C 0.1875 -3.375 -0.15625 -4.15625 -0.75 -4.703125 C -0.265625 -4.8125 0.078125 -5.25 0.078125 -5.734375 C 0.078125 -5.9375 0.0625 -6.09375 -0.03125 -6.421875 Z M -2.171875 -4.671875 C -1.265625 -4.671875 -0.703125 -3.75 -0.703125 -2.78125 C -0.703125 -2 -0.96875 -1.546875 -1.65625 -1.546875 C -2.3125 -1.546875 -2.609375 -1.984375 -2.765625 -3.0625 C -2.90625 -4.109375 -2.953125 -4.328125 -3.109375 -4.671875 Z M -2.171875 -4.671875 "
           id="path62" />
      </symbol>
      <symbol
         overflow="visible"
         id="glyph1-9">
        <path
           style="stroke:none;"
           d="M 0 -1.8125 L -8.75 -1.8125 L -8.75 -0.8125 L 0 -0.8125 Z M 0 -1.8125 "
           id="path65" />
      </symbol>
      <symbol
         overflow="visible"
         id="glyph1-10">
        <path
           style="stroke:none;"
           d="M -2.859375 -6.15625 C -3.765625 -6.15625 -4.34375 -6.078125 -4.8125 -5.90625 C -5.84375 -5.5 -6.46875 -4.53125 -6.46875 -3.359375 C -6.46875 -1.609375 -5.171875 -0.484375 -3.109375 -0.484375 C -1.046875 -0.484375 0.1875 -1.578125 0.1875 -3.34375 C 0.1875 -4.78125 -0.640625 -5.765625 -1.90625 -6.03125 L -1.90625 -5.015625 C -1.078125 -4.734375 -0.75 -4.171875 -0.75 -3.375 C -0.75 -2.328125 -1.421875 -1.546875 -2.859375 -1.53125 Z M -3.75 -5.09375 C -3.75 -5.09375 -3.703125 -5.09375 -3.671875 -5.078125 L -3.671875 -1.546875 C -4.78125 -1.625 -5.546875 -2.34375 -5.546875 -3.34375 C -5.546875 -4.328125 -4.734375 -5.09375 -3.75 -5.09375 Z M -3.75 -5.09375 "
           id="path68" />
      </symbol>
      <symbol
         overflow="visible"
         id="glyph1-11">
        <path
           style="stroke:none;"
           d="M 0 -5.78125 L -6.28125 -5.78125 L -6.28125 -4.78125 L -2.8125 -4.78125 C -1.53125 -4.78125 -0.703125 -4.109375 -0.703125 -3.078125 C -0.703125 -2.28125 -1.171875 -1.78125 -1.9375 -1.78125 L -6.28125 -1.78125 L -6.28125 -0.78125 L -1.53125 -0.78125 C -0.484375 -0.78125 0.1875 -1.5625 0.1875 -2.78125 C 0.1875 -3.703125 -0.140625 -4.296875 -0.96875 -4.890625 L 0 -4.890625 Z M 0 -5.78125 "
           id="path71" />
      </symbol>
      <symbol
         overflow="visible"
         id="glyph1-12">
        <path
           style="stroke:none;"
           d="M -5.40625 -3.859375 L -6.4375 -3.859375 C -6.453125 -3.6875 -6.46875 -3.59375 -6.46875 -3.46875 C -6.46875 -2.8125 -6.078125 -2.328125 -5.140625 -1.75 L -6.28125 -1.75 L -6.28125 -0.84375 L 0 -0.84375 L 0 -1.84375 L -3.265625 -1.84375 C -4.6875 -1.84375 -5.390625 -2.296875 -5.40625 -3.859375 Z M -5.40625 -3.859375 "
           id="path74" />
      </symbol>
      <symbol
         overflow="visible"
         id="glyph1-13">
        <path
           style="stroke:none;"
           d="M -1.765625 -5.515625 C -2.703125 -5.515625 -3.171875 -4.984375 -3.46875 -3.734375 L -3.703125 -2.765625 C -3.890625 -1.953125 -4.15625 -1.609375 -4.59375 -1.609375 C -5.171875 -1.609375 -5.546875 -2.125 -5.546875 -2.9375 C -5.546875 -3.75 -5.203125 -4.171875 -4.53125 -4.203125 L -4.53125 -5.25 C -5.765625 -5.25 -6.46875 -4.421875 -6.46875 -2.96875 C -6.46875 -1.515625 -5.71875 -0.5625 -4.546875 -0.5625 C -3.5625 -0.5625 -3.09375 -1.0625 -2.734375 -2.5625 L -2.515625 -3.484375 C -2.34375 -4.1875 -2.140625 -4.46875 -1.6875 -4.46875 C -1.09375 -4.46875 -0.75 -3.875 -0.75 -3 C -0.75 -2.09375 -0.953125 -1.59375 -1.921875 -1.46875 L -1.921875 -0.40625 C -0.46875 -0.453125 0.1875 -1.265625 0.1875 -2.921875 C 0.1875 -4.5 -0.546875 -5.515625 -1.765625 -5.515625 Z M -1.765625 -5.515625 "
           id="path77" />
      </symbol>
      <symbol
         overflow="visible"
         id="glyph1-14">
        <path
           style="stroke:none;"
           d=""
           id="path80" />
      </symbol>
      <symbol
         overflow="visible"
         id="glyph1-15">
        <path
           style="stroke:none;"
           d="M 0 -5.9375 L -8.75 -5.9375 L -8.75 -4.9375 L -5.5 -4.9375 C -6.125 -4.53125 -6.46875 -3.859375 -6.46875 -3.015625 C -6.46875 -1.375 -5.203125 -0.3125 -3.203125 -0.3125 C -1.078125 -0.3125 0.1875 -1.359375 0.1875 -3.046875 C 0.1875 -3.90625 -0.140625 -4.515625 -0.921875 -5.046875 L 0 -5.046875 Z M -3.125 -4.9375 C -1.671875 -4.9375 -0.75 -4.25 -0.75 -3.1875 C -0.75 -2.09375 -1.6875 -1.359375 -3.140625 -1.359375 C -4.609375 -1.359375 -5.53125 -2.09375 -5.53125 -3.1875 C -5.53125 -4.265625 -4.578125 -4.9375 -3.125 -4.9375 Z M -3.125 -4.9375 "
           id="path83" />
      </symbol>
      <symbol
         overflow="visible"
         id="glyph1-16">
        <path
           style="stroke:none;"
           d="M -6.28125 -5.828125 L -6.28125 -4.703125 L -1.1875 -2.921875 L -6.28125 -1.25 L -6.28125 -0.125 L 0 -2.328125 L 0 -3.421875 Z M -6.28125 -5.828125 "
           id="path86" />
      </symbol>
      <symbol
         overflow="visible"
         id="glyph1-17">
        <path
           style="stroke:none;"
           d="M 0 -1.84375 L -6.28125 -1.84375 L -6.28125 -0.84375 L 0 -0.84375 Z M -7.234375 -1.96875 L -8.484375 -1.96875 L -8.484375 -0.71875 L -7.234375 -0.71875 Z M -7.234375 -1.96875 "
           id="path89" />
      </symbol>
      <symbol
         overflow="visible"
         id="glyph1-18">
        <path
           style="stroke:none;"
           d="M -3.21875 -6.28125 C -5.25 -6.28125 -6.46875 -5.25 -6.46875 -3.59375 C -6.46875 -2.71875 -6.140625 -2.109375 -5.4375 -1.640625 L -8.75 -1.640625 L -8.75 -0.640625 L 0 -0.640625 L 0 -1.546875 L -0.90625 -1.546875 C -0.171875 -2.03125 0.1875 -2.65625 0.1875 -3.546875 C 0.1875 -5.203125 -1.171875 -6.28125 -3.21875 -6.28125 Z M -3.15625 -5.234375 C -1.734375 -5.234375 -0.75 -4.484375 -0.75 -3.390625 C -0.75 -2.34375 -1.71875 -1.640625 -3.140625 -1.640625 C -4.625 -1.640625 -5.578125 -2.34375 -5.53125 -3.390625 C -5.53125 -4.515625 -4.5625 -5.234375 -3.15625 -5.234375 Z M -3.15625 -5.234375 "
           id="path92" />
      </symbol>
    </g>
  </defs>
  <path
     inkscape:connector-curvature="0"
     id="path101"
     d="M 76.839844,214.6875 98.324219,187.24609"
     style="fill:none;stroke:#4d4d4d;stroke-width:0.75;stroke-linecap:round;stroke-linejoin:round;stroke-miterlimit:10;stroke-opacity:1" />
  <path
     inkscape:connector-curvature="0"
     id="path103"
     d="m 109.96484,181.57812 h 15.96094"
     style="fill:none;stroke:#4d4d4d;stroke-width:0.75;stroke-linecap:round;stroke-linejoin:round;stroke-miterlimit:10;stroke-opacity:1" />
  <path
     inkscape:connector-curvature="0"
     id="path105"
     d="m 140.32812,181.57812 h 15.96094"
     style="fill:none;stroke:#4d4d4d;stroke-width:0.75;stroke-linecap:round;stroke-linejoin:round;stroke-miterlimit:10;stroke-opacity:1" />
  <path
     inkscape:connector-curvature="0"
     id="path107"
     d="m 167.92969,175.91016 21.48437,-27.44141"
     style="fill:none;stroke:#4d4d4d;stroke-width:0.75;stroke-linecap:round;stroke-linejoin:round;stroke-miterlimit:10;stroke-opacity:1" />
  <path
     inkscape:connector-curvature="0"
     id="path109"
     d="m 201.05469,142.80078 h 15.96484"
     style="fill:none;stroke:#4d4d4d;stroke-width:0.75;stroke-linecap:round;stroke-linejoin:round;stroke-miterlimit:10;stroke-opacity:1" />
  <path
     inkscape:connector-curvature="0"
     id="path111"
     d="m 231.41797,142.80078 h 15.96484"
     style="fill:none;stroke:#4d4d4d;stroke-width:0.75;stroke-linecap:round;stroke-linejoin:round;stroke-miterlimit:10;stroke-opacity:1" />
  <path
     inkscape:connector-curvature="0"
     id="path113"
     d="m 259.01953,137.13281 21.48828,-27.4414"
     style="fill:none;stroke:#4d4d4d;stroke-width:0.75;stroke-linecap:round;stroke-linejoin:round;stroke-miterlimit:10;stroke-opacity:1" />
  <path
     inkscape:connector-curvature="0"
     id="path115"
     d="m 292.14453,104.02344 h 15.96484"
     style="fill:none;stroke:#4d4d4d;stroke-width:0.75;stroke-linecap:round;stroke-linejoin:round;stroke-miterlimit:10;stroke-opacity:1" />
  <path
     inkscape:connector-curvature="0"
     id="path117"
     d="m 322.50781,104.02344 h 15.96485"
     style="fill:none;stroke:#4d4d4d;stroke-width:0.75;stroke-linecap:round;stroke-linejoin:round;stroke-miterlimit:10;stroke-opacity:1" />
  <path
     inkscape:connector-curvature="0"
     id="path119"
     d="m 350.11328,98.351562 21.48438,-27.4375"
     style="fill:none;stroke:#4d4d4d;stroke-width:0.75;stroke-linecap:round;stroke-linejoin:round;stroke-miterlimit:10;stroke-opacity:1" />
  <path
     inkscape:connector-curvature="0"
     id="path121"
     d="m 383.23828,65.246094 h 15.96094"
     style="fill:none;stroke:#4d4d4d;stroke-width:0.75;stroke-linecap:round;stroke-linejoin:round;stroke-miterlimit:10;stroke-opacity:1" />
  <path
     inkscape:connector-curvature="0"
     id="path147"
     d="M 71.584361,226.55859 H 406.39844"
     style="fill:none;stroke:#4d4d4d;stroke-width:0.75;stroke-linecap:round;stroke-linejoin:round;stroke-miterlimit:10;stroke-opacity:1" />
  <path
     inkscape:connector-curvature="0"
     id="path149"
     d="m 102.76172,226.55859 v 7.20313"
     style="fill:none;stroke:#4d4d4d;stroke-width:0.75;stroke-linecap:round;stroke-linejoin:round;stroke-miterlimit:10;stroke-opacity:1" />
  <path
     inkscape:connector-curvature="0"
     id="path151"
     d="m 163.49219,226.55859 v 7.20313"
     style="fill:none;stroke:#4d4d4d;stroke-width:0.75;stroke-linecap:round;stroke-linejoin:round;stroke-miterlimit:10;stroke-opacity:1" />
  <path
     inkscape:connector-curvature="0"
     id="path153"
     d="m 224.21875,226.55859 v 7.20313"
     style="fill:none;stroke:#4d4d4d;stroke-width:0.75;stroke-linecap:round;stroke-linejoin:round;stroke-miterlimit:10;stroke-opacity:1" />
  <path
     inkscape:connector-curvature="0"
     id="path155"
     d="m 284.94531,226.55859 v 7.20313"
     style="fill:none;stroke:#4d4d4d;stroke-width:0.75;stroke-linecap:round;stroke-linejoin:round;stroke-miterlimit:10;stroke-opacity:1" />
  <path
     inkscape:connector-curvature="0"
     id="path157"
     d="m 345.67187,226.55859 v 7.20313"
     style="fill:none;stroke:#4d4d4d;stroke-width:0.75;stroke-linecap:round;stroke-linejoin:round;stroke-miterlimit:10;stroke-opacity:1" />
  <path
     inkscape:connector-curvature="0"
     id="path159"
     d="m 406.39844,226.55859 v 7.20313"
     style="fill:none;stroke:#4d4d4d;stroke-width:0.75;stroke-linecap:round;stroke-linejoin:round;stroke-miterlimit:10;stroke-opacity:1" />
  <g
     id="g163"
     style="fill:#000000;fill-opacity:1">
    <use
       height="100%"
       width="100%"
       id="use161"
       y="252.25684"
       x="99.261719"
       xlink:href="#glyph0-1"
       style="fill:#333333" />
  </g>
  <g
     id="g167"
     style="fill:#000000;fill-opacity:1">
    <use
       height="100%"
       width="100%"
       id="use165"
       y="252.25684"
       x="159.99219"
       xlink:href="#glyph0-2"
       style="fill:#333333" />
  </g>
  <g
     id="g171"
     style="fill:#000000;fill-opacity:1">
    <use
       height="100%"
       width="100%"
       id="use169"
       y="252.25684"
       x="220.71875"
       xlink:href="#glyph0-3"
       style="fill:#333333" />
  </g>
  <g
     id="g175"
     style="fill:#000000;fill-opacity:1">
    <use
       height="100%"
       width="100%"
       id="use173"
       y="252.25684"
       x="281.44531"
       xlink:href="#glyph0-4"
       style="fill:#333333" />
  </g>
  <g
     id="g181"
     style="fill:#000000;fill-opacity:1">
    <use
       height="100%"
       width="100%"
       id="use177"
       y="252.25684"
       x="338.67188"
       xlink:href="#glyph0-5"
       style="fill:#333333" />
    <use
       height="100%"
       width="100%"
       id="use179"
       y="252.25684"
       x="345.34375"
       xlink:href="#glyph0-6"
       style="fill:#333333" />
  </g>
  <g
     id="g187"
     style="fill:#000000;fill-opacity:1">
    <use
       height="100%"
       width="100%"
       id="use183"
       y="252.25684"
       x="399.39844"
       xlink:href="#glyph0-5"
       style="fill:#333333" />
    <use
       height="100%"
       width="100%"
       id="use185"
       y="252.25684"
       x="406.07031"
       xlink:href="#glyph0-1"
       style="fill:#333333" />
  </g>
  <path
     inkscape:connector-curvature="0"
     id="path189"
     d="M 59.039062,220.35547 V 65.246094"
     style="fill:none;stroke:#4d4d4d;stroke-width:0.75;stroke-linecap:round;stroke-linejoin:round;stroke-miterlimit:10;stroke-opacity:1" />
  <path
     inkscape:connector-curvature="0"
     id="path191"
     d="M 59.039062,220.35547 H 51.839844"
     style="fill:none;stroke:#4d4d4d;stroke-width:0.75;stroke-linecap:round;stroke-linejoin:round;stroke-miterlimit:10;stroke-opacity:1" />
  <path
     inkscape:connector-curvature="0"
     id="path193"
     d="M 59.039062,181.57812 H 51.839844"
     style="fill:none;stroke:#4d4d4d;stroke-width:0.75;stroke-linecap:round;stroke-linejoin:round;stroke-miterlimit:10;stroke-opacity:1" />
  <path
     inkscape:connector-curvature="0"
     id="path195"
     d="M 59.039062,142.80078 H 51.839844"
     style="fill:none;stroke:#4d4d4d;stroke-width:0.75;stroke-linecap:round;stroke-linejoin:round;stroke-miterlimit:10;stroke-opacity:1" />
  <path
     inkscape:connector-curvature="0"
     id="path197"
     d="M 59.039062,104.02344 H 51.839844"
     style="fill:none;stroke:#4d4d4d;stroke-width:0.75;stroke-linecap:round;stroke-linejoin:round;stroke-miterlimit:10;stroke-opacity:1" />
  <path
     inkscape:connector-curvature="0"
     id="path199"
     d="M 59.039062,65.246094 H 51.839844"
     style="fill:none;stroke:#4d4d4d;stroke-width:0.75;stroke-linecap:round;stroke-linejoin:round;stroke-miterlimit:10;stroke-opacity:1" />
  <g
     id="g205"
     style="fill:#000000;fill-opacity:1">
    <use
       height="100%"
       width="100%"
       id="use201"
       y="227.35547"
       x="41.538086"
       xlink:href="#glyph1-1"
       style="fill:#333333" />
    <use
       height="100%"
       width="100%"
       id="use203"
       y="220.68359"
       x="41.538086"
       xlink:href="#glyph1-2"
       style="fill:#333333" />
  </g>
  <g
     id="g211"
     style="fill:#000000;fill-opacity:1">
    <use
       height="100%"
       width="100%"
       id="use207"
       y="188.57812"
       x="41.538086"
       xlink:href="#glyph1-3"
       style="fill:#333333" />
    <use
       height="100%"
       width="100%"
       id="use209"
       y="181.90625"
       x="41.538086"
       xlink:href="#glyph1-2"
       style="fill:#333333" />
  </g>
  <g
     id="g217"
     style="fill:#000000;fill-opacity:1">
    <use
       height="100%"
       width="100%"
       id="use213"
       y="149.80078"
       x="41.538086"
       xlink:href="#glyph1-4"
       style="fill:#333333" />
    <use
       height="100%"
       width="100%"
       id="use215"
       y="143.12891"
       x="41.538086"
       xlink:href="#glyph1-2"
       style="fill:#333333" />
  </g>
  <g
     id="g223"
     style="fill:#000000;fill-opacity:1">
    <use
       height="100%"
       width="100%"
       id="use219"
       y="111.02344"
       x="41.538086"
       xlink:href="#glyph1-5"
       style="fill:#333333" />
    <use
       height="100%"
       width="100%"
       id="use221"
       y="104.35156"
       x="41.538086"
       xlink:href="#glyph1-2"
       style="fill:#333333" />
  </g>
  <g
     id="g229"
     style="fill:#000000;fill-opacity:1">
    <use
       height="100%"
       width="100%"
       id="use225"
       y="72.246094"
       x="41.538086"
       xlink:href="#glyph1-6"
       style="fill:#333333" />
    <use
       height="100%"
       width="100%"
       id="use227"
       y="65.574219"
       x="41.538086"
       xlink:href="#glyph1-2"
       style="fill:#333333" />
  </g>
  <g
     id="g243"
     style="fill:#000000;fill-opacity:1"
     transform="translate(0,-12)">
    <use
       height="100%"
       width="100%"
       id="use233"
       y="281.05762"
       x="221.39844"
       xlink:href="#glyph0-7"
       style="fill:#333333" />
    <use
       height="100%"
       width="100%"
       id="use235"
       y="281.05762"
       x="227.59082"
       xlink:href="#glyph0-8"
       style="fill:#333333" />
    <use
       height="100%"
       width="100%"
       id="use237"
       y="281.05762"
       x="234.2627"
       xlink:href="#glyph0-9"
       style="fill:#333333" />
    <use
       height="100%"
       width="100%"
       id="use239"
       y="281.05762"
       x="244.31836"
       xlink:href="#glyph0-10"
       style="fill:#333333" />
    <use
       height="100%"
       width="100%"
       id="use241"
       y="281.05762"
       x="250.99023"
       xlink:href="#glyph0-11"
       style="fill:#333333" />
  </g>
  <g
     id="g289"
     style="fill:#000000;fill-opacity:1"
     transform="translate(7.5)">
    <use
       height="100%"
       width="100%"
       id="use245"
       y="200.30078"
       x="12.737305"
       xlink:href="#glyph1-7"
       style="fill:#333333" />
    <use
       height="100%"
       width="100%"
       id="use247"
       y="193.0166"
       x="12.737305"
       xlink:href="#glyph1-8"
       style="fill:#333333" />
    <use
       height="100%"
       width="100%"
       id="use249"
       y="186.34473"
       x="12.737305"
       xlink:href="#glyph1-9"
       style="fill:#333333" />
    <use
       height="100%"
       width="100%"
       id="use251"
       y="183.68066"
       x="12.737305"
       xlink:href="#glyph1-10"
       style="fill:#333333" />
    <use
       height="100%"
       width="100%"
       id="use253"
       y="177.00879"
       x="12.737305"
       xlink:href="#glyph1-11"
       style="fill:#333333" />
    <use
       height="100%"
       width="100%"
       id="use255"
       y="170.33691"
       x="12.737305"
       xlink:href="#glyph1-12"
       style="fill:#333333" />
    <use
       height="100%"
       width="100%"
       id="use257"
       y="166.28125"
       x="12.737305"
       xlink:href="#glyph1-13"
       style="fill:#333333" />
    <use
       height="100%"
       width="100%"
       id="use259"
       y="160.28125"
       x="12.737305"
       xlink:href="#glyph1-14"
       style="fill:#333333" />
    <use
       height="100%"
       width="100%"
       id="use261"
       y="156.94531"
       x="12.737305"
       xlink:href="#glyph1-15"
       style="fill:#333333" />
    <use
       height="100%"
       width="100%"
       id="use263"
       y="150.27344"
       x="12.737305"
       xlink:href="#glyph1-10"
       style="fill:#333333" />
    <use
       height="100%"
       width="100%"
       id="use265"
       y="143.60156"
       x="12.737305"
       xlink:href="#glyph1-14"
       style="fill:#333333" />
    <use
       height="100%"
       width="100%"
       id="use267"
       y="140.26562"
       x="12.737305"
       xlink:href="#glyph1-9"
       style="fill:#333333" />
    <use
       height="100%"
       width="100%"
       id="use269"
       y="137.60156"
       x="12.737305"
       xlink:href="#glyph1-8"
       style="fill:#333333" />
    <use
       height="100%"
       width="100%"
       id="use271"
       y="130.92969"
       x="12.737305"
       xlink:href="#glyph1-14"
       style="fill:#333333" />
    <use
       height="100%"
       width="100%"
       id="use273"
       y="127.59375"
       x="12.737305"
       xlink:href="#glyph1-16"
       style="fill:#333333" />
    <use
       height="100%"
       width="100%"
       id="use275"
       y="121.83398"
       x="12.737305"
       xlink:href="#glyph1-8"
       style="fill:#333333" />
    <use
       height="100%"
       width="100%"
       id="use277"
       y="115.16211"
       x="12.737305"
       xlink:href="#glyph1-12"
       style="fill:#333333" />
    <use
       height="100%"
       width="100%"
       id="use279"
       y="111.16602"
       x="12.737305"
       xlink:href="#glyph1-17"
       style="fill:#333333" />
    <use
       height="100%"
       width="100%"
       id="use281"
       y="108.50195"
       x="12.737305"
       xlink:href="#glyph1-8"
       style="fill:#333333" />
    <use
       height="100%"
       width="100%"
       id="use283"
       y="101.83008"
       x="12.737305"
       xlink:href="#glyph1-18"
       style="fill:#333333" />
    <use
       height="100%"
       width="100%"
       id="use285"
       y="95.158203"
       x="12.737305"
       xlink:href="#glyph1-9"
       style="fill:#333333" />
    <use
       height="100%"
       width="100%"
       id="use287"
       y="92.494141"
       x="12.737305"
       xlink:href="#glyph1-10"
       style="fill:#333333" />
  </g>
  <path
     style="fill:none;stroke:#afc6e9;stroke-width:1.12500012;stroke-linecap:butt;stroke-linejoin:miter;stroke-miterlimit:4;stroke-dasharray:1.125, 1.125;stroke-dashoffset:0;stroke-opacity:1"
     d="m 254.60102,143.0454 v 18.14345"
     id="path2752-5-9-2-6"
     inkscape:connector-curvature="0" />
  <path
     inkscape:connector-curvature="0"
     id="path291"
     d="m 72.398438,220.35547 h 91.093752 l 30.36328,-38.77735 h 60.72656 l 30.36328,-38.77734 h 60.72656 l 30.36329,-38.77734 h 30.36328"
     style="fill:none;stroke:#b02121;stroke-width:1.125;stroke-linecap:round;stroke-linejoin:round;stroke-miterlimit:10;stroke-opacity:1;stroke-dasharray:none" />
  <path
     style="fill:none;stroke:#afc6e9;stroke-width:1.125;stroke-linecap:butt;stroke-linejoin:miter;stroke-miterlimit:4;stroke-dasharray:1.12499997, 1.12499997;stroke-dashoffset:0;stroke-opacity:1"
     d="m 224.24039,142.65165 v 7.12039"
     id="path2752-5-9-2-3"
     inkscape:connector-curvature="0" />
  <path
     inkscape:connector-curvature="0"
     id="path293"
     d="m 72.398438,220.35547 30.363282,-46.53516 30.36719,-7.7539 30.36328,-19.38672 30.36328,-3.87891 30.36328,7.75391 30.36328,11.63281 30.36328,3.87891 30.36328,-3.87891 30.36328,-15.50781 30.36329,-46.53516 30.36328,-31.023436"
     style="fill:none;stroke:#1c8fff;stroke-width:1.125;stroke-linecap:round;stroke-linejoin:round;stroke-miterlimit:10;stroke-opacity:1;stroke-dasharray:none" />
  <flowRoot
     xml:space="preserve"
     id="flowRoot1205"
     style="font-style:normal;font-weight:normal;font-size:40px;line-height:1.25;font-family:sans-serif;letter-spacing:0px;word-spacing:0px;fill:#4d4d4d;fill-opacity:1;stroke:none"
     transform="matrix(0.75,0,0,0.75,26.049008,18.273618)"><flowRegion
       id="flowRegion1207"
       style="fill:#4d4d4d"><rect
         id="rect1209"
         width="111.52737"
         height="64.841499"
         x="510.08646"
         y="19.596542"
         style="fill:#4d4d4d" /></flowRegion><flowPara
       id="flowPara1211"
       style="font-style:normal;font-variant:normal;font-weight:bold;font-stretch:normal;font-size:16px;font-family:Ubuntu;-inkscape-font-specification:'Ubuntu Bold';fill:#4d4d4d">REF</flowPara></flowRoot>  <flowRoot
     xml:space="preserve"
     id="flowRoot1205-3"
     style="font-style:normal;font-weight:normal;font-size:40px;line-height:1.25;font-family:sans-serif;letter-spacing:0px;word-spacing:0px;fill:#1c8fff;fill-opacity:1;stroke:none"
     transform="matrix(0.75,0,0,0.75,26.305055,36.964811)"><flowRegion
       id="flowRegion1207-6"
       style="fill:#1c8fff"><rect
         id="rect1209-7"
         width="111.52737"
         height="64.841499"
         x="510.08646"
         y="19.596542"
         style="fill:#1c8fff" /></flowRegion><flowPara
       id="flowPara1211-5"
       style="font-style:normal;font-variant:normal;font-weight:bold;font-stretch:normal;font-size:16px;font-family:Ubuntu;-inkscape-font-specification:'Ubuntu Bold';fill:#1c8fff">S2</flowPara></flowRoot>  <flowRoot
     xml:space="preserve"
     id="flowRoot1205-35"
     style="font-style:normal;font-weight:normal;font-size:40px;line-height:1.25;font-family:sans-serif;letter-spacing:0px;word-spacing:0px;fill:#b02121;fill-opacity:1;stroke:none"
     transform="matrix(0.75,0,0,0.75,26.305056,65.391726)"><flowRegion
       id="flowRegion1207-62"
       style="fill:#b02121"><rect
         id="rect1209-9"
         width="111.52737"
         height="64.841499"
         x="510.08646"
         y="19.596542"
         style="fill:#b02121" /></flowRegion><flowPara
       id="flowPara1211-1"
       style="font-style:normal;font-variant:normal;font-weight:bold;font-stretch:normal;font-size:16px;font-family:Ubuntu;-inkscape-font-specification:'Ubuntu Bold';fill:#b02121">S1</flowPara></flowRoot>  <g
     id="g2055"
     transform="matrix(0.73025408,0,0,0.73025408,-12.877208,-18.606309)"
     style="fill:#4d4d4d;stroke-width:1.36938643">
    <g
       id="g2053"
       transform="matrix(0.42857143,0,0,-0.42857143,-75,337.5)"
       xml:space="preserve"
       stroke-miterlimit="10.433"
       font-style="normal"
       font-variant="normal"
       font-weight="normal"
       font-stretch="normal"
       font-size-adjust="none"
       letter-spacing="normal"
       word-spacing="normal"
       style="font-style:normal;font-variant:normal;font-weight:normal;font-stretch:normal;letter-spacing:normal;word-spacing:normal;text-anchor:start;fill:#4d4d4d;fill-opacity:1;fill-rule:evenodd;stroke:#000000;stroke-width:1.36938643;stroke-linecap:butt;stroke-linejoin:miter;stroke-miterlimit:10.43299961;stroke-dasharray:none;stroke-dashoffset:0;stroke-opacity:1"><path
         d="m 463.44,410.09 -0.04,-0.18 -0.05,-0.17 -0.04,-0.16 -0.05,-0.15 -0.04,-0.15 -0.05,-0.13 -0.04,-0.13 -0.05,-0.12 -0.06,-0.11 -0.06,-0.11 -0.06,-0.1 -0.07,-0.09 -0.08,-0.09 -0.09,-0.07 -0.09,-0.08 -0.11,-0.06 -0.11,-0.07 -0.12,-0.05 -0.14,-0.05 -0.15,-0.05 -0.16,-0.04 -0.09,-0.02 -0.08,-0.01 -0.1,-0.02 -0.1,-0.02 -0.1,-0.01 -0.1,-0.01 -0.11,-0.01 -0.11,-0.02 -0.12,-0.01 -0.12,-0.01 h -0.13 l -0.13,-0.01 -0.13,-0.01 h -0.15 l -0.14,-0.01 h -0.15 l -0.16,-0.01 h -0.16 -0.16 -0.17 -0.18 -0.18 c -0.84,0 -1.39,0 -1.39,-0.96 0,-0.59 0.44,-0.59 1.39,-0.59 h 16.48 l -0.89,1.55 h -5.62 c -0.7,0 -0.8,0 -1.11,0.04 -0.48,0.05 -0.64,0.1 -0.64,0.5 0,0.14 0,0.25 0.25,1.14 l 6.83,27.36 c 0.43,1.74 0.54,1.89 2.68,1.89 h 5.33 c 4.89,0 9.02,-2.64 9.02,-9.22 0,-2.43 -1,-10.6 -5.24,-16.09 -1.43,-1.84 -5.37,-5.62 -11.5,-5.62 l 0.89,-1.55 c 10.36,0 20.19,10.51 20.19,21.42 0,7.03 -4.23,12.61 -11.72,12.61 h -16.73 c -0.95,0 -1.5,0 -1.5,-0.95 0,-0.6 0.45,-0.6 1.45,-0.6 0.64,0 1.55,-0.04 2.14,-0.09 0.8,-0.11 1.1,-0.25 1.1,-0.8 0,-0.2 -0.05,-0.36 -0.21,-0.95 z"
         id="path2031"
         inkscape:connector-curvature="0"
         style="fill:#4d4d4d;stroke-width:0" /><path
         d="m 517.5,410.61 0.39,0.09 0.38,0.11 0.38,0.11 0.38,0.12 0.37,0.13 0.36,0.14 0.36,0.15 0.35,0.15 0.35,0.17 0.33,0.16 0.33,0.18 0.32,0.18 0.31,0.19 0.3,0.2 0.29,0.21 0.27,0.21 0.26,0.21 0.26,0.22 0.23,0.23 0.23,0.24 0.21,0.24 0.19,0.24 0.18,0.25 0.16,0.26 0.15,0.26 0.12,0.26 0.11,0.27 0.1,0.27 0.07,0.28 0.05,0.28 0.03,0.29 0.01,0.29 c 0,2.98 -3.55,5.36 -8.59,5.36 h -10.7 c -0.66,0 -1.11,0 -1.11,-0.77 0,-0.48 0.4,-0.48 1.11,-0.48 0.03,0 0.7,0 1.32,-0.08 0.74,-0.06 0.8,-0.14 0.8,-0.48 0,-0.07 0,-0.24 -0.14,-0.77 l -4.64,-18.5 c -0.27,-1.19 -0.34,-1.47 -3.06,-1.47 -0.6,0 -1.05,0 -1.05,-0.73 0,-0.35 0.25,-0.52 0.56,-0.52 0.66,0 1.47,0.11 2.16,0.11 0.67,0 1.67,0.03 2.3,0.03 0.7,0 1.5,-0.03 2.23,-0.03 0.73,0 1.61,-0.11 2.34,-0.11 0.18,0 0.72,0 0.72,0.74 0,0.51 -0.34,0.51 -1.14,0.51 -0.56,0 -0.7,0 -1.33,0.08 -0.76,0.09 -0.76,0.17 -0.76,0.52 0,0.03 0,0.25 0.14,0.76 l 2.19,8.81 h 4.75 l 0.03,0.99 h -4.5 l 2.23,8.95 c 0.25,0.97 0.31,1.08 1.08,1.19 h 2.23 c 3.24,0 7.25,0 7.25,-3.6 0,-1.42 -0.67,-3.62 -2.29,-4.87 -1.44,-1.11 -3.6,-1.67 -6,-1.67 l -0.03,-0.99 c 3,0 4.28,-1.48 4.28,-3.12 0,-0.45 -0.31,-1.64 -0.49,-2.44 -0.42,-1.61 -0.56,-2.12 -0.56,-2.72 0,-2.75 2.55,-3.84 5.12,-3.84 3.21,0 4.6,3.42 4.6,4.05 0,0.1 -0.06,0.48 -0.6,0.48 -0.45,0 -0.51,-0.23 -0.62,-0.59 -0.48,-1.54 -1.76,-2.96 -3.23,-2.96 -0.91,0 -1.57,0.38 -1.57,2.27 0,0.87 0.21,2.69 0.35,3.62 0.14,0.94 0.14,1.28 0.14,1.64 0,0.41 0,1.54 -0.99,2.58 -0.65,0.72 -1.59,1.17 -2.36,1.46 z"
         id="path2033"
         inkscape:connector-curvature="0"
         style="fill:#4d4d4d;stroke-width:0" /><path
         d="m 534.28,399.32 v -0.36 l -0.02,-0.37 -0.03,-0.38 -0.04,-0.38 -0.03,-0.19 -0.03,-0.2 -0.04,-0.2 -0.05,-0.19 -0.05,-0.2 -0.05,-0.2 -0.06,-0.2 -0.07,-0.2 -0.08,-0.2 -0.08,-0.21 -0.09,-0.2 -0.1,-0.21 -0.11,-0.2 -0.11,-0.21 -0.12,-0.2 -0.14,-0.21 -0.14,-0.21 -0.15,-0.2 -0.16,-0.21 -0.17,-0.21 -0.18,-0.21 -0.2,-0.2 -0.2,-0.21 -0.22,-0.21 c -0.14,-0.14 -0.25,-0.25 -0.25,-0.42 0,-0.25 0.28,-0.49 0.49,-0.49 0.48,0 3.45,2.78 3.45,6.92 0,2.18 -0.84,3.8 -2.44,3.8 -1.15,0 -1.98,-0.9 -1.98,-1.98 0,-1.11 0.79,-2.02 2.01,-2.02 0.85,0 1.39,0.56 1.44,0.56 z"
         id="path2035"
         inkscape:connector-curvature="0"
         style="fill:#4d4d4d;stroke-width:0" /><path
         d="m 563.53,422.81 v 0.02 0.01 0.02 0.02 0.02 l -0.01,0.01 v 0.02 l -0.01,0.02 v 0.02 l -0.01,0.02 -0.01,0.02 v 0.02 l -0.01,0.02 -0.01,0.01 -0.01,0.02 -0.02,0.02 -0.01,0.02 -0.01,0.01 -0.02,0.02 -0.02,0.01 -0.01,0.02 -0.02,0.01 -0.02,0.01 -0.03,0.02 -0.02,0.01 h -0.02 l -0.03,0.01 -0.01,0.01 h -0.02 -0.01 -0.01 l -0.02,0.01 h -0.01 -0.02 -0.02 -0.01 -0.02 c -0.2,0 -0.23,-0.05 -0.68,-0.5 l -1.72,-1.98 c -1.32,1.86 -3.52,2.48 -5.65,2.48 -4.9,0 -9.26,-3.98 -9.26,-7.98 0,-0.52 0.11,-1.92 1.16,-3.21 1.17,-1.39 2.47,-1.7 4.84,-2.26 0.69,-0.17 2.44,-0.56 2.95,-0.7 1.11,-0.29 3.25,-1.05 3.25,-3.66 0,-2.81 -2.97,-6.13 -6.94,-6.13 -3.06,0 -6.76,1.08 -6.76,4.94 0,0.36 0.08,1.13 0.2,1.75 0.05,0.14 0.05,0.17 0.05,0.2 0,0.46 -0.42,0.46 -0.56,0.46 -0.49,0 -0.52,-0.06 -0.66,-0.69 l -1.78,-6.97 c -0.03,-0.14 -0.11,-0.36 -0.11,-0.53 0,-0.2 0.14,-0.42 0.49,-0.42 0.21,0 0.25,0.05 0.7,0.5 0.39,0.4 1.3,1.53 1.67,1.95 1.84,-2.03 4.56,-2.45 6.66,-2.45 5.26,0 9.51,4.53 9.51,8.64 0,1.55 -0.62,2.94 -1.39,3.73 -1.22,1.25 -1.75,1.39 -6.25,2.44 -0.72,0.17 -1.87,0.45 -2.19,0.56 -0.87,0.32 -2.33,1.19 -2.33,3.18 0,2.75 3.1,5.53 6.72,5.53 3.77,0 5.58,-2.13 5.58,-5.44 0,-0.45 -0.14,-1.25 -0.14,-1.56 0,-0.49 0.42,-0.49 0.59,-0.49 0.52,0 0.55,0.17 0.69,0.77 z"
         id="path2037"
         inkscape:connector-curvature="0"
         style="fill:#4d4d4d;stroke-width:0" /><path
         d="m 582.79,405.11 h -1.19 c -0.09,-0.77 -0.45,-2.83 -0.9,-3.18 -0.27,-0.2 -2.96,-0.2 -3.44,-0.2 h -6.42 c 3.65,3.23 4.87,4.2 6.96,5.84 2.58,2.07 4.99,4.22 4.99,7.54 0,4.21 -3.69,6.79 -8.16,6.79 -4.31,0 -7.25,-3.03 -7.25,-6.23 0,-1.78 1.5,-1.96 1.86,-1.96 0.83,0 1.85,0.6 1.85,1.85 0,0.62 -0.25,1.84 -2.07,1.84 1.08,2.47 3.46,3.24 5.1,3.24 3.48,0 5.29,-2.71 5.29,-5.53 0,-3.04 -2.15,-5.44 -3.28,-6.69 l -8.39,-8.3 c -0.36,-0.31 -0.36,-0.39 -0.36,-1.36 h 14.36 z"
         id="path2039"
         inkscape:connector-curvature="0"
         style="fill:#4d4d4d;stroke-width:0" /><path
         d="m 635.55,422.5 h 0.14 0.15 0.14 l 0.08,0.01 h 0.07 l 0.07,0.01 0.07,0.01 0.07,0.01 0.07,0.01 0.07,0.01 0.07,0.02 0.06,0.02 0.06,0.02 0.06,0.02 0.06,0.03 0.06,0.03 0.05,0.04 0.05,0.03 0.05,0.05 0.04,0.04 0.04,0.05 0.02,0.03 0.02,0.03 0.01,0.02 0.02,0.03 0.01,0.03 0.02,0.04 0.01,0.03 0.01,0.04 0.01,0.03 0.01,0.04 0.01,0.04 v 0.04 l 0.01,0.04 v 0.04 0.04 0.05 c 0,1 -0.95,1 -1.64,1 h -29.84 c -0.71,0 -1.64,0 -1.64,-1 0,-0.98 0.93,-0.98 1.68,-0.98 z"
         id="path2041"
         inkscape:connector-curvature="0"
         style="fill:#4d4d4d;stroke-width:0" /><path
         d="m 635.6,412.82 h 0.07 0.06 l 0.14,0.01 h 0.14 0.07 l 0.07,0.01 0.07,0.01 h 0.07 l 0.07,0.01 0.06,0.02 0.07,0.01 0.06,0.02 0.07,0.02 0.06,0.02 0.06,0.02 0.06,0.03 0.05,0.03 0.05,0.04 0.05,0.04 0.05,0.04 0.04,0.05 0.02,0.02 0.02,0.03 0.02,0.02 0.02,0.03 0.01,0.03 0.02,0.03 0.01,0.03 0.02,0.03 0.01,0.04 0.01,0.03 0.01,0.04 0.01,0.04 0.01,0.04 v 0.04 l 0.01,0.04 v 0.04 0.05 0.04 c 0,1 -0.95,1 -1.69,1 H 605.8 c -0.75,0 -1.68,0 -1.68,-1 0,-1 0.93,-1 1.64,-1 z"
         id="path2043"
         inkscape:connector-curvature="0"
         style="fill:#4d4d4d;stroke-width:0" /><path
         d="m 660.32,410.04 5.28,5.13 c 7.77,6.87 10.77,9.56 10.77,14.54 0,5.69 -4.48,9.68 -10.56,9.68 -5.64,0 -9.33,-4.6 -9.33,-9.03 0,-2.79 2.5,-2.79 2.64,-2.79 0.86,0 2.6,0.6 2.6,2.64 0,1.3 -0.9,2.6 -2.65,2.6 -0.39,0 -0.5,0 -0.64,-0.05 1.14,3.24 3.83,5.08 6.72,5.08 4.53,0 6.69,-4.05 6.69,-8.13 0,-3.98 -2.5,-7.92 -5.24,-11.01 l -9.56,-10.66 c -0.56,-0.54 -0.56,-0.64 -0.56,-1.84 h 18.49 l 1.4,8.67 h -1.25 c -0.25,-1.5 -0.59,-3.69 -1.09,-4.44 -0.36,-0.39 -3.64,-0.39 -4.74,-0.39 z"
         id="path2045"
         inkscape:connector-curvature="0"
         style="fill:#4d4d4d;stroke-width:0" /><path
         d="m 694.34,424.23 0.34,0.18 0.32,0.17 0.32,0.19 0.32,0.19 0.3,0.19 0.3,0.2 0.28,0.2 0.28,0.2 0.27,0.21 0.27,0.22 0.25,0.21 0.24,0.23 0.24,0.22 0.22,0.24 0.21,0.23 0.21,0.24 0.19,0.24 0.18,0.25 0.17,0.25 0.16,0.26 0.15,0.26 0.14,0.27 0.13,0.27 0.11,0.27 0.1,0.28 0.09,0.28 0.07,0.28 0.06,0.29 0.05,0.29 0.04,0.3 0.02,0.3 0.01,0.31 c 0,4.59 -4.44,7.44 -8.97,7.44 l -0.05,-1.25 c 3.64,0 6.83,-2.6 6.83,-6.19 0,-2.83 -1.96,-5.22 -4.94,-6.97 l -6.17,3.98 c -2.3,1.5 -2.5,3.19 -2.5,4.04 0,3.04 3.25,5.14 6.78,5.14 l 0.05,1.25 c -4.99,0 -9.02,-3.69 -9.02,-8.33 0,-0.89 0.09,-3.14 2.19,-5.49 0.54,-0.59 2.39,-1.84 3.64,-2.68 l 1.14,-0.75 6.14,-3.88 c 1.39,-0.95 3.73,-2.45 3.73,-5.48 0,-3.69 -3.73,-6.28 -7.82,-6.28 -4.29,0 -7.88,3.09 -7.88,7.21 0,2.9 1.59,6.08 5.83,8.43 v 0 l -1.14,0.75 c -2.89,-1.44 -7.17,-4.24 -7.17,-9.18 0,-5.28 5.07,-8.6 10.31,-8.6 5.62,0 10.36,4.14 10.36,9.46 0,1.79 -0.55,4.04 -2.44,6.13 -0.95,1.05 -1.75,1.55 -4.94,3.53 z"
         id="path2047"
         inkscape:connector-curvature="0"
         style="fill:#4d4d4d;stroke-width:0" /><path
         d="m 714.02,406.25 v 0.3 l -0.01,0.3 -0.02,0.29 -0.03,0.28 -0.03,0.27 -0.04,0.26 -0.04,0.26 -0.05,0.24 -0.06,0.24 -0.07,0.23 -0.07,0.22 -0.07,0.21 -0.09,0.2 -0.09,0.19 -0.09,0.19 -0.1,0.17 -0.11,0.16 -0.11,0.16 -0.12,0.14 -0.12,0.13 -0.13,0.13 -0.13,0.11 -0.14,0.1 -0.15,0.1 -0.14,0.08 -0.16,0.07 -0.16,0.06 -0.16,0.05 -0.17,0.04 -0.17,0.03 -0.18,0.01 -0.18,0.01 c -1.64,0 -2.64,-1.25 -2.64,-2.64 0,-1.34 1,-2.64 2.64,-2.64 0.6,0 1.25,0.2 1.75,0.64 0.14,0.11 0.2,0.16 0.25,0.16 0.05,0 0.1,-0.05 0.1,-0.75 0,-3.69 -1.74,-6.68 -3.4,-8.32 -0.54,-0.54 -0.54,-0.65 -0.54,-0.79 0,-0.36 0.25,-0.55 0.5,-0.55 0.54,0 4.53,3.83 4.53,9.66 z"
         id="path2049"
         inkscape:connector-curvature="0"
         style="fill:#4d4d4d;stroke-width:0" /><path
         d="m 748.36,416.21 -0.01,0.56 -0.03,0.54 -0.06,0.54 -0.08,0.53 -0.11,0.53 -0.12,0.51 -0.15,0.5 -0.16,0.5 -0.19,0.48 -0.2,0.47 -0.22,0.46 -0.25,0.44 -0.26,0.43 -0.27,0.41 -0.3,0.4 -0.31,0.38 -0.32,0.36 -0.34,0.35 -0.36,0.32 -0.37,0.31 -0.38,0.29 -0.4,0.26 -0.41,0.25 -0.42,0.22 -0.43,0.2 -0.45,0.17 -0.45,0.15 -0.46,0.13 -0.48,0.09 -0.48,0.07 -0.49,0.05 -0.5,0.01 c -2.4,0 -4.54,-0.8 -6.33,-2.53 v 9.7 c 1,-0.29 2.64,-0.64 4.23,-0.64 6.13,0 9.61,4.53 9.61,5.19 0,0.3 -0.14,0.55 -0.5,0.55 -0.05,0 -0.14,0 -0.39,-0.16 -1,-0.45 -3.44,-1.44 -6.78,-1.44 -1.99,0 -4.28,0.35 -6.63,1.39 -0.39,0.14 -0.5,0.14 -0.59,0.14 -0.5,0 -0.5,-0.39 -0.5,-1.18 v -14.75 c 0,-0.89 0,-1.3 0.7,-1.3 0.35,0 0.44,0.16 0.64,0.45 0.55,0.8 2.39,3.49 6.42,3.49 2.6,0 3.85,-2.3 4.24,-3.19 0.81,-1.84 0.91,-3.78 0.91,-6.28 0,-1.74 0,-4.74 -1.21,-6.83 -1.19,-1.94 -3.03,-3.23 -5.32,-3.23 -3.65,0 -6.47,2.64 -7.33,5.57 0.15,-0.04 0.31,-0.09 0.86,-0.09 1.64,0 2.48,1.25 2.48,2.44 0,1.2 -0.84,2.44 -2.48,2.44 -0.71,0 -2.46,-0.35 -2.46,-2.65 0,-4.28 3.44,-9.1 9.03,-9.1 5.77,0 10.86,4.78 10.86,11.1 z"
         id="path2051"
         inkscape:connector-curvature="0"
         style="fill:#4d4d4d;stroke-width:0" /></g>  </g>
  <g
     id="g2517"
     transform="matrix(0.73025408,0,0,0.73025408,-12.877208,-44.71141)"
     style="fill:#4d4d4d;stroke-width:1.36938643">
    <g
       word-spacing="normal"
       letter-spacing="normal"
       font-size-adjust="none"
       font-stretch="normal"
       font-weight="normal"
       font-variant="normal"
       font-style="normal"
       stroke-miterlimit="10.433"
       xml:space="preserve"
       transform="matrix(0.42857143,0,0,-0.42857143,-75,337.5)"
       id="g2515"
       style="font-style:normal;font-variant:normal;font-weight:normal;font-stretch:normal;letter-spacing:normal;word-spacing:normal;text-anchor:start;fill:#4d4d4d;fill-opacity:1;fill-rule:evenodd;stroke:#000000;stroke-width:1.36938643;stroke-linecap:butt;stroke-linejoin:miter;stroke-miterlimit:10.43299961;stroke-dasharray:none;stroke-dashoffset:0;stroke-opacity:1"><path
         id="path2493"
         d="m 463.44,410.09 -0.04,-0.18 -0.05,-0.17 -0.04,-0.16 -0.05,-0.15 -0.04,-0.15 -0.05,-0.13 -0.04,-0.13 -0.05,-0.12 -0.06,-0.11 -0.06,-0.11 -0.06,-0.1 -0.07,-0.09 -0.08,-0.09 -0.09,-0.07 -0.09,-0.08 -0.11,-0.06 -0.11,-0.07 -0.12,-0.05 -0.14,-0.05 -0.15,-0.05 -0.16,-0.04 -0.09,-0.02 -0.08,-0.01 -0.1,-0.02 -0.1,-0.02 -0.1,-0.01 -0.1,-0.01 -0.11,-0.01 -0.11,-0.02 -0.12,-0.01 -0.12,-0.01 h -0.13 l -0.13,-0.01 -0.13,-0.01 h -0.15 l -0.14,-0.01 h -0.15 l -0.16,-0.01 h -0.16 -0.16 -0.17 -0.18 -0.18 c -0.84,0 -1.39,0 -1.39,-0.96 0,-0.59 0.44,-0.59 1.39,-0.59 h 16.48 l -0.89,1.55 h -5.62 c -0.7,0 -0.8,0 -1.11,0.04 -0.48,0.05 -0.64,0.1 -0.64,0.5 0,0.14 0,0.25 0.25,1.14 l 6.83,27.36 c 0.43,1.74 0.54,1.89 2.68,1.89 h 5.33 c 4.89,0 9.02,-2.64 9.02,-9.22 0,-2.43 -1,-10.6 -5.24,-16.09 -1.43,-1.84 -5.37,-5.62 -11.5,-5.62 l 0.89,-1.55 c 10.36,0 20.19,10.51 20.19,21.42 0,7.03 -4.23,12.61 -11.72,12.61 h -16.73 c -0.95,0 -1.5,0 -1.5,-0.95 0,-0.6 0.45,-0.6 1.45,-0.6 0.64,0 1.55,-0.04 2.14,-0.09 0.8,-0.11 1.1,-0.25 1.1,-0.8 0,-0.2 -0.05,-0.36 -0.21,-0.95 z"
         inkscape:connector-curvature="0"
         style="fill:#4d4d4d;stroke-width:0" /><path
         id="path2495"
         d="m 517.5,410.61 0.39,0.09 0.38,0.11 0.38,0.11 0.38,0.12 0.37,0.13 0.36,0.14 0.36,0.15 0.35,0.15 0.35,0.17 0.33,0.16 0.33,0.18 0.32,0.18 0.31,0.19 0.3,0.2 0.29,0.21 0.27,0.21 0.26,0.21 0.26,0.22 0.23,0.23 0.23,0.24 0.21,0.24 0.19,0.24 0.18,0.25 0.16,0.26 0.15,0.26 0.12,0.26 0.11,0.27 0.1,0.27 0.07,0.28 0.05,0.28 0.03,0.29 0.01,0.29 c 0,2.98 -3.55,5.36 -8.59,5.36 h -10.7 c -0.66,0 -1.11,0 -1.11,-0.77 0,-0.48 0.4,-0.48 1.11,-0.48 0.03,0 0.7,0 1.32,-0.08 0.74,-0.06 0.8,-0.14 0.8,-0.48 0,-0.07 0,-0.24 -0.14,-0.77 l -4.64,-18.5 c -0.27,-1.19 -0.34,-1.47 -3.06,-1.47 -0.6,0 -1.05,0 -1.05,-0.73 0,-0.35 0.25,-0.52 0.56,-0.52 0.66,0 1.47,0.11 2.16,0.11 0.67,0 1.67,0.03 2.3,0.03 0.7,0 1.5,-0.03 2.23,-0.03 0.73,0 1.61,-0.11 2.34,-0.11 0.18,0 0.72,0 0.72,0.74 0,0.51 -0.34,0.51 -1.14,0.51 -0.56,0 -0.7,0 -1.33,0.08 -0.76,0.09 -0.76,0.17 -0.76,0.52 0,0.03 0,0.25 0.14,0.76 l 2.19,8.81 h 4.75 l 0.03,0.99 h -4.5 l 2.23,8.95 c 0.25,0.97 0.31,1.08 1.08,1.19 h 2.23 c 3.24,0 7.25,0 7.25,-3.6 0,-1.42 -0.67,-3.62 -2.29,-4.87 -1.44,-1.11 -3.6,-1.67 -6,-1.67 l -0.03,-0.99 c 3,0 4.28,-1.48 4.28,-3.12 0,-0.45 -0.31,-1.64 -0.49,-2.44 -0.42,-1.61 -0.56,-2.12 -0.56,-2.72 0,-2.75 2.55,-3.84 5.12,-3.84 3.21,0 4.6,3.42 4.6,4.05 0,0.1 -0.06,0.48 -0.6,0.48 -0.45,0 -0.51,-0.23 -0.62,-0.59 -0.48,-1.54 -1.76,-2.96 -3.23,-2.96 -0.91,0 -1.57,0.38 -1.57,2.27 0,0.87 0.21,2.69 0.35,3.62 0.14,0.94 0.14,1.28 0.14,1.64 0,0.41 0,1.54 -0.99,2.58 -0.65,0.72 -1.59,1.17 -2.36,1.46 z"
         inkscape:connector-curvature="0"
         style="fill:#4d4d4d;stroke-width:0" /><path
         id="path2497"
         d="m 534.28,399.32 v -0.36 l -0.02,-0.37 -0.03,-0.38 -0.04,-0.38 -0.03,-0.19 -0.03,-0.2 -0.04,-0.2 -0.05,-0.19 -0.05,-0.2 -0.05,-0.2 -0.06,-0.2 -0.07,-0.2 -0.08,-0.2 -0.08,-0.21 -0.09,-0.2 -0.1,-0.21 -0.11,-0.2 -0.11,-0.21 -0.12,-0.2 -0.14,-0.21 -0.14,-0.21 -0.15,-0.2 -0.16,-0.21 -0.17,-0.21 -0.18,-0.21 -0.2,-0.2 -0.2,-0.21 -0.22,-0.21 c -0.14,-0.14 -0.25,-0.25 -0.25,-0.42 0,-0.25 0.28,-0.49 0.49,-0.49 0.48,0 3.45,2.78 3.45,6.92 0,2.18 -0.84,3.8 -2.44,3.8 -1.15,0 -1.98,-0.9 -1.98,-1.98 0,-1.11 0.79,-2.02 2.01,-2.02 0.85,0 1.39,0.56 1.44,0.56 z"
         inkscape:connector-curvature="0"
         style="fill:#4d4d4d;stroke-width:0" /><path
         id="path2499"
         d="m 563.53,422.81 v 0.02 0.01 0.02 0.02 0.02 l -0.01,0.01 v 0.02 l -0.01,0.02 v 0.02 l -0.01,0.02 -0.01,0.02 v 0.02 l -0.01,0.02 -0.01,0.01 -0.01,0.02 -0.02,0.02 -0.01,0.02 -0.01,0.01 -0.02,0.02 -0.02,0.01 -0.01,0.02 -0.02,0.01 -0.02,0.01 -0.03,0.02 -0.02,0.01 h -0.02 l -0.03,0.01 -0.01,0.01 h -0.02 -0.01 -0.01 l -0.02,0.01 h -0.01 -0.02 -0.02 -0.01 -0.02 c -0.2,0 -0.23,-0.05 -0.68,-0.5 l -1.72,-1.98 c -1.32,1.86 -3.52,2.48 -5.65,2.48 -4.9,0 -9.26,-3.98 -9.26,-7.98 0,-0.52 0.11,-1.92 1.16,-3.21 1.17,-1.39 2.47,-1.7 4.84,-2.26 0.69,-0.17 2.44,-0.56 2.95,-0.7 1.11,-0.29 3.25,-1.05 3.25,-3.66 0,-2.81 -2.97,-6.13 -6.94,-6.13 -3.06,0 -6.76,1.08 -6.76,4.94 0,0.36 0.08,1.13 0.2,1.75 0.05,0.14 0.05,0.17 0.05,0.2 0,0.46 -0.42,0.46 -0.56,0.46 -0.49,0 -0.52,-0.06 -0.66,-0.69 l -1.78,-6.97 c -0.03,-0.14 -0.11,-0.36 -0.11,-0.53 0,-0.2 0.14,-0.42 0.49,-0.42 0.21,0 0.25,0.05 0.7,0.5 0.39,0.4 1.3,1.53 1.67,1.95 1.84,-2.03 4.56,-2.45 6.66,-2.45 5.26,0 9.51,4.53 9.51,8.64 0,1.55 -0.62,2.94 -1.39,3.73 -1.22,1.25 -1.75,1.39 -6.25,2.44 -0.72,0.17 -1.87,0.45 -2.19,0.56 -0.87,0.32 -2.33,1.19 -2.33,3.18 0,2.75 3.1,5.53 6.72,5.53 3.77,0 5.58,-2.13 5.58,-5.44 0,-0.45 -0.14,-1.25 -0.14,-1.56 0,-0.49 0.42,-0.49 0.59,-0.49 0.52,0 0.55,0.17 0.69,0.77 z"
         inkscape:connector-curvature="0"
         style="fill:#4d4d4d;stroke-width:0" /><path
         id="path2501"
         d="m 576.87,420.92 v 0.04 0.04 0.05 0.04 0.03 l -0.01,0.04 v 0.04 0.03 0.04 0.03 0.03 l -0.01,0.03 v 0.03 0.03 0.03 l -0.01,0.02 v 0.03 l -0.01,0.02 v 0.03 l -0.01,0.02 -0.01,0.04 -0.01,0.04 -0.02,0.03 -0.02,0.03 -0.02,0.03 -0.03,0.03 -0.02,0.02 -0.04,0.02 -0.03,0.02 -0.04,0.01 -0.04,0.01 -0.04,0.02 h -0.02 -0.03 l -0.02,0.01 h -0.03 l -0.03,0.01 h -0.03 -0.03 -0.03 -0.03 l -0.03,0.01 h -0.04 -0.03 -0.04 -0.04 -0.04 -0.04 -0.04 -0.04 -0.04 -0.05 c -2.23,-2.2 -5.39,-2.23 -6.83,-2.23 v -1.25 c 0.85,0 3.14,0 5.05,0.97 v -17.77 c 0,-1.16 0,-1.61 -3.49,-1.61 h -1.31 v -1.25 c 0.63,0.03 4.91,0.14 6.21,0.14 1.07,0 5.46,-0.11 6.23,-0.14 v 1.25 h -1.33 c -3.48,0 -3.48,0.45 -3.48,1.61 z"
         inkscape:connector-curvature="0"
         style="fill:#4d4d4d;stroke-width:0" /><path
         id="path2503"
         d="m 635.55,422.5 h 0.14 0.15 0.14 l 0.08,0.01 h 0.07 l 0.07,0.01 0.07,0.01 0.07,0.01 0.07,0.01 0.07,0.01 0.07,0.02 0.06,0.02 0.06,0.02 0.06,0.02 0.06,0.03 0.06,0.03 0.05,0.04 0.05,0.03 0.05,0.05 0.04,0.04 0.04,0.05 0.02,0.03 0.02,0.03 0.01,0.02 0.02,0.03 0.01,0.03 0.02,0.04 0.01,0.03 0.01,0.04 0.01,0.03 0.01,0.04 0.01,0.04 v 0.04 l 0.01,0.04 v 0.04 0.04 0.05 c 0,1 -0.95,1 -1.64,1 h -29.84 c -0.71,0 -1.64,0 -1.64,-1 0,-0.98 0.93,-0.98 1.68,-0.98 z"
         inkscape:connector-curvature="0"
         style="fill:#4d4d4d;stroke-width:0" /><path
         id="path2505"
         d="m 635.6,412.82 h 0.07 0.06 l 0.14,0.01 h 0.14 0.07 l 0.07,0.01 0.07,0.01 h 0.07 l 0.07,0.01 0.06,0.02 0.07,0.01 0.06,0.02 0.07,0.02 0.06,0.02 0.06,0.02 0.06,0.03 0.05,0.03 0.05,0.04 0.05,0.04 0.05,0.04 0.04,0.05 0.02,0.02 0.02,0.03 0.02,0.02 0.02,0.03 0.01,0.03 0.02,0.03 0.01,0.03 0.02,0.03 0.01,0.04 0.01,0.03 0.01,0.04 0.01,0.04 0.01,0.04 v 0.04 l 0.01,0.04 v 0.04 0.05 0.04 c 0,1 -0.95,1 -1.69,1 H 605.8 c -0.75,0 -1.68,0 -1.68,-1 0,-1 0.93,-1 1.64,-1 z"
         inkscape:connector-curvature="0"
         style="fill:#4d4d4d;stroke-width:0" /><path
         id="path2507"
         d="m 668.45,423.73 0.38,0.13 0.37,0.15 0.36,0.15 0.36,0.17 0.35,0.18 0.34,0.19 0.33,0.2 0.32,0.22 0.31,0.22 0.3,0.23 0.29,0.24 0.29,0.25 0.27,0.26 0.26,0.27 0.25,0.27 0.23,0.29 0.23,0.29 0.21,0.3 0.2,0.3 0.19,0.32 0.17,0.32 0.16,0.32 0.15,0.33 0.13,0.34 0.12,0.34 0.1,0.34 0.09,0.35 0.08,0.36 0.05,0.36 0.04,0.36 0.03,0.36 0.01,0.37 c 0,4.08 -4.39,6.88 -9.17,6.88 -5.03,0 -8.82,-3 -8.82,-6.78 0,-1.65 1.1,-2.6 2.55,-2.6 1.53,0 2.53,1.1 2.53,2.55 0,2.48 -2.34,2.48 -3.08,2.48 1.54,2.44 4.83,3.1 6.63,3.1 2.03,0 4.78,-1.1 4.78,-5.58 0,-0.61 -0.11,-3.49 -1.41,-5.69 -1.48,-2.39 -3.18,-2.53 -4.42,-2.59 -0.41,-0.05 -1.59,-0.14 -1.95,-0.14 -0.39,-0.05 -0.75,-0.1 -0.75,-0.6 0,-0.54 0.36,-0.54 1.2,-0.54 h 2.19 c 4.09,0 5.94,-3.39 5.94,-8.29 0,-6.76 -3.44,-8.21 -5.64,-8.21 -2.15,0 -5.88,0.84 -7.61,3.78 1.73,-0.24 3.28,0.86 3.28,2.75 0,1.79 -1.35,2.78 -2.8,2.78 -1.19,0 -2.78,-0.69 -2.78,-2.89 0,-4.53 4.63,-7.81 10.06,-7.81 6.08,0 10.61,4.53 10.61,9.6 0,4.1 -3.14,7.97 -8.31,9.02 z"
         inkscape:connector-curvature="0"
         style="fill:#4d4d4d;stroke-width:0" /><path
         id="path2509"
         d="m 693.41,423.73 0.37,0.13 0.38,0.15 0.36,0.15 0.36,0.17 0.34,0.18 0.34,0.19 0.33,0.2 0.33,0.22 0.31,0.22 0.3,0.23 0.29,0.24 0.28,0.25 0.27,0.26 0.26,0.27 0.25,0.27 0.24,0.29 0.22,0.29 0.22,0.3 0.2,0.3 0.19,0.32 0.17,0.32 0.16,0.32 0.15,0.33 0.13,0.34 0.12,0.34 0.1,0.34 0.09,0.35 0.07,0.36 0.06,0.36 0.04,0.36 0.03,0.36 0.01,0.37 c 0,4.08 -4.4,6.88 -9.18,6.88 -5.03,0 -8.81,-3 -8.81,-6.78 0,-1.65 1.09,-2.6 2.55,-2.6 1.53,0 2.53,1.1 2.53,2.55 0,2.48 -2.35,2.48 -3.08,2.48 1.53,2.44 4.83,3.1 6.63,3.1 2.03,0 4.78,-1.1 4.78,-5.58 0,-0.61 -0.11,-3.49 -1.41,-5.69 -1.48,-2.39 -3.19,-2.53 -4.42,-2.59 -0.41,-0.05 -1.59,-0.14 -1.95,-0.14 -0.4,-0.05 -0.75,-0.1 -0.75,-0.6 0,-0.54 0.35,-0.54 1.2,-0.54 h 2.19 c 4.09,0 5.93,-3.39 5.93,-8.29 0,-6.76 -3.43,-8.21 -5.64,-8.21 -2.14,0 -5.87,0.84 -7.61,3.78 1.74,-0.24 3.28,0.86 3.28,2.75 0,1.79 -1.34,2.78 -2.79,2.78 -1.19,0 -2.78,-0.69 -2.78,-2.89 0,-4.53 4.62,-7.81 10.06,-7.81 6.08,0 10.61,4.53 10.61,9.6 0,4.1 -3.14,7.97 -8.31,9.02 z"
         inkscape:connector-curvature="0"
         style="fill:#4d4d4d;stroke-width:0" /><path
         id="path2511"
         d="m 714.02,406.25 v 0.3 l -0.01,0.3 -0.02,0.29 -0.03,0.28 -0.03,0.27 -0.04,0.26 -0.04,0.26 -0.05,0.24 -0.06,0.24 -0.07,0.23 -0.07,0.22 -0.07,0.21 -0.09,0.2 -0.09,0.19 -0.09,0.19 -0.1,0.17 -0.11,0.16 -0.11,0.16 -0.12,0.14 -0.12,0.13 -0.13,0.13 -0.13,0.11 -0.14,0.1 -0.15,0.1 -0.14,0.08 -0.16,0.07 -0.16,0.06 -0.16,0.05 -0.17,0.04 -0.17,0.03 -0.18,0.01 -0.18,0.01 c -1.64,0 -2.64,-1.25 -2.64,-2.64 0,-1.34 1,-2.64 2.64,-2.64 0.6,0 1.25,0.2 1.75,0.64 0.14,0.11 0.2,0.16 0.25,0.16 0.05,0 0.1,-0.05 0.1,-0.75 0,-3.69 -1.74,-6.68 -3.4,-8.32 -0.54,-0.54 -0.54,-0.65 -0.54,-0.79 0,-0.36 0.25,-0.55 0.5,-0.55 0.54,0 4.53,3.83 4.53,9.66 z"
         inkscape:connector-curvature="0"
         style="fill:#4d4d4d;stroke-width:0" /><path
         id="path2513"
         d="m 732.32,410.04 5.28,5.13 c 7.76,6.87 10.76,9.56 10.76,14.54 0,5.69 -4.48,9.68 -10.56,9.68 -5.64,0 -9.33,-4.6 -9.33,-9.03 0,-2.79 2.5,-2.79 2.64,-2.79 0.86,0 2.6,0.6 2.6,2.64 0,1.3 -0.89,2.6 -2.64,2.6 -0.39,0 -0.5,0 -0.64,-0.05 1.14,3.24 3.82,5.08 6.72,5.08 4.53,0 6.68,-4.05 6.68,-8.13 0,-3.98 -2.5,-7.92 -5.23,-11.01 l -9.57,-10.66 c -0.56,-0.54 -0.56,-0.64 -0.56,-1.84 h 18.49 l 1.4,8.67 h -1.25 c -0.25,-1.5 -0.59,-3.69 -1.09,-4.44 -0.36,-0.39 -3.64,-0.39 -4.74,-0.39 z"
         inkscape:connector-curvature="0"
         style="fill:#4d4d4d;stroke-width:0" /></g>  </g>
  <path
     style="fill:none;stroke:#afc6e9;stroke-width:1.125;stroke-linecap:butt;stroke-linejoin:miter;stroke-miterlimit:4;stroke-dasharray:1.125,1.125;stroke-dashoffset:0;stroke-opacity:1"
     d="M 133.15451,166.68814 V 181.8186"
     id="path2752-5-9"
     inkscape:connector-curvature="0" />
  <path
     style="fill:none;stroke:#afc6e9;stroke-width:1.125;stroke-linecap:butt;stroke-linejoin:miter;stroke-miterlimit:4;stroke-dasharray:1.125,1.125;stroke-dashoffset:0;stroke-opacity:1"
     d="m 102.77378,174.36168 v 7.45061"
     id="path2752-5-9-1"
     inkscape:connector-curvature="0" />
  <path
     style="fill:none;stroke:#afc6e9;stroke-width:1.125;stroke-linecap:butt;stroke-linejoin:miter;stroke-miterlimit:4;stroke-dasharray:1.125,1.125;stroke-dashoffset:0;stroke-opacity:1"
     d="m 163.45477,147.43458 v 34.27277"
     id="path2752-5-9-2"
     inkscape:connector-curvature="0" />
  <path
     inkscape:connector-curvature="0"
     id="path123"
     d="m 75.101562,220.35547 c 0,3.60156 -5.402343,3.60156 -5.402343,0 0,-3.60156 5.402343,-3.60156 5.402343,0"
     style="fill:#4d4d4d;stroke:#4d4d4d;stroke-width:0.75;stroke-linecap:round;stroke-linejoin:round;stroke-miterlimit:10;stroke-opacity:1" />
  <path
     inkscape:connector-curvature="0"
     id="path125"
     d="m 105.46484,181.57812 c 0,3.60157 -5.40234,3.60157 -5.40234,0 0,-3.60156 5.40234,-3.60156 5.40234,0"
     style="fill:#4d4d4d;stroke:#4d4d4d;stroke-width:0.75;stroke-linecap:round;stroke-linejoin:round;stroke-miterlimit:10;stroke-opacity:1" />
  <path
     inkscape:connector-curvature="0"
     id="path127"
     d="m 135.82812,181.57812 c 0,3.60157 -5.40234,3.60157 -5.40234,0 0,-3.60156 5.40234,-3.60156 5.40234,0"
     style="fill:#4d4d4d;stroke:#4d4d4d;stroke-width:0.75;stroke-linecap:round;stroke-linejoin:round;stroke-miterlimit:10;stroke-opacity:1" />
  <path
     inkscape:connector-curvature="0"
     id="path129"
     d="m 166.19141,181.57812 c 0,3.60157 -5.40235,3.60157 -5.40235,0 0,-3.60156 5.40235,-3.60156 5.40235,0"
     style="fill:#4d4d4d;stroke:#4d4d4d;stroke-width:0.75;stroke-linecap:round;stroke-linejoin:round;stroke-miterlimit:10;stroke-opacity:1" />
  <path
     inkscape:connector-curvature="0"
     id="path131"
     d="m 196.55469,142.80078 c 0,3.59766 -5.39844,3.59766 -5.39844,0 0,-3.60156 5.39844,-3.60156 5.39844,0"
     style="fill:#4d4d4d;stroke:#4d4d4d;stroke-width:0.75;stroke-linecap:round;stroke-linejoin:round;stroke-miterlimit:10;stroke-opacity:1" />
  <path
     inkscape:connector-curvature="0"
     id="path133"
     d="m 226.91797,142.80078 c 0,3.59766 -5.39844,3.59766 -5.39844,0 0,-3.60156 5.39844,-3.60156 5.39844,0"
     style="fill:#4d4d4d;stroke:#4d4d4d;stroke-width:0.75;stroke-linecap:round;stroke-linejoin:round;stroke-miterlimit:10;stroke-opacity:1" />
  <path
     inkscape:connector-curvature="0"
     id="path135"
     d="m 257.28125,142.80078 c 0,3.59766 -5.39844,3.59766 -5.39844,0 0,-3.60156 5.39844,-3.60156 5.39844,0"
     style="fill:#4d4d4d;stroke:#4d4d4d;stroke-width:0.75;stroke-linecap:round;stroke-linejoin:round;stroke-miterlimit:10;stroke-opacity:1" />
  <path
     inkscape:connector-curvature="0"
     id="path145"
     d="m 409.10156,65.246094 c 0,3.597656 -5.40234,3.597656 -5.40234,0 0,-3.601563 5.40234,-3.601563 5.40234,0"
     style="fill:#4d4d4d;stroke:#4d4d4d;stroke-width:0.75;stroke-linecap:round;stroke-linejoin:round;stroke-miterlimit:10;stroke-opacity:1" />
  <path
     style="fill:none;stroke:#afc6e9;stroke-width:1.125;stroke-linecap:butt;stroke-linejoin:miter;stroke-miterlimit:4;stroke-dasharray:1.12499998, 1.12499998;stroke-dashoffset:0;stroke-opacity:1"
     d="m 284.94531,105.20863 v 60.85778"
     id="path2752-5-9-2-7"
     inkscape:connector-curvature="0" />
  <path
     style="fill:none;stroke:#afc6e9;stroke-width:1.125;stroke-linecap:butt;stroke-linejoin:miter;stroke-miterlimit:4;stroke-dasharray:1.12499999, 1.12499999;stroke-dashoffset:0;stroke-opacity:1"
     d="m 315.3086,106.51704 v 55.67047"
     id="path2752-5-9-2-5"
     inkscape:connector-curvature="0" />
  <path
     inkscape:connector-curvature="0"
     id="path139"
     d="m 318.00781,104.02344 c 0,3.59765 -5.39844,3.59765 -5.39844,0 0,-3.60156 5.39844,-3.60156 5.39844,0"
     style="fill:#4d4d4d;stroke:#4d4d4d;stroke-width:0.75;stroke-linecap:round;stroke-linejoin:round;stroke-miterlimit:10;stroke-opacity:1" />
  <path
     style="fill:none;stroke:#afc6e9;stroke-width:1.125;stroke-linecap:butt;stroke-linejoin:miter;stroke-miterlimit:4;stroke-dasharray:1.12500001, 1.12500001;stroke-dashoffset:0;stroke-opacity:1"
     d="M 345.67189,105.18557 V 146.6797"
     id="path2752-5-9-2-35"
     inkscape:connector-curvature="0" />
  <path
     inkscape:connector-curvature="0"
     id="path141"
     d="m 348.37109,104.02344 c 0,3.59765 -5.39843,3.59765 -5.39843,0 0,-3.60156 5.39843,-3.60156 5.39843,0"
     style="fill:#4d4d4d;stroke:#4d4d4d;stroke-width:0.75;stroke-linecap:round;stroke-linejoin:round;stroke-miterlimit:10;stroke-opacity:1" />
  <path
     style="fill:none;stroke:#afc6e9;stroke-width:1.125;stroke-linecap:butt;stroke-linejoin:miter;stroke-miterlimit:4;stroke-dasharray:1.125, 1.125;stroke-dashoffset:0;stroke-opacity:1"
     d="M 376.03517,65.698073 V 98.836121"
     id="path2752-5-9-2-62"
     inkscape:connector-curvature="0" />
  <path
     inkscape:connector-curvature="0"
     id="path137"
     d="m 287.64453,104.02344 c 0,3.59765 -5.39844,3.59765 -5.39844,0 0,-3.60156 5.39844,-3.60156 5.39844,0"
     style="fill:#4d4d4d;stroke:#4d4d4d;stroke-width:0.75;stroke-linecap:round;stroke-linejoin:round;stroke-miterlimit:10;stroke-opacity:1" />
  <path
     inkscape:connector-curvature="0"
     id="path143"
     d="m 378.73828,65.246094 c 0,3.597656 -5.40234,3.597656 -5.40234,0 0,-3.601563 5.40234,-3.601563 5.40234,0"
     style="fill:#4d4d4d;stroke:#4d4d4d;stroke-width:0.75;stroke-linecap:round;stroke-linejoin:round;stroke-miterlimit:10;stroke-opacity:1" />
</svg>
